{
	"info": {
		"_postman_id": "c5db5183-d036-45fe-a6ef-d3013b036c7e",
		"name": "Star Wars",
		"schema": "https://schema.getpostman.com/json/collection/v2.1.0/collection.json"
	},
	"item": [
		{
			"name": "Obtener peliculas",
			"request": {
				"method": "GET",
				"header": [],
				"url": {
					"raw": "https://swapi.dev/api/films/",
					"protocol": "https",
					"host": [
						"swapi",
						"dev"
					],
					"path": [
						"api",
						"films",
						""
					]
				}
			},
			"response": []
		},
		{
			"name": "Obtener pelicula 1",
			"request": {
				"method": "GET",
				"header": [],
				"url": {
					"raw": "https://swapi.dev/api/films/1",
					"protocol": "https",
					"host": [
						"swapi",
						"dev"
					],
					"path": [
						"api",
						"films",
						"1"
					]
				}
			},
			"response": []
		},
		{
			"name": "Obtener planetas",
			"request": {
				"method": "GET",
				"header": [],
				"url": {
					"raw": "https://swapi.dev/api/planets/",
					"protocol": "https",
					"host": [
						"swapi",
						"dev"
					],
					"path": [
						"api",
						"planets",
						""
					]
				}
			},
			"response": []
		}
	]
}